<?xml version="1.0" encoding="iso-8859-1"?>
<!-- Generator: Adobe Illustrator 19.0.0, SVG Export Plug-In . SVG Version: 6.00 Build 0)  -->
<svg version="1.1" id="Layer_1" xmlns="http://www.w3.org/2000/svg" xmlns:xlink="http://www.w3.org/1999/xlink" x="0px" y="0px"
	 viewBox="0 0 231.44 231.44" style="enable-background:new 0 0 231.44 231.44;" xml:space="preserve">
<g>
	<g>
		<g>
			<path d="M131.836,105.599h27.225c2.231,0,4.04-1.809,4.04-4.04c0-2.231-1.809-4.04-4.04-4.04h-24.692l-25.726-53.192
				c-0.754-1.558-2.429-2.442-4.133-2.251c-1.718,0.213-3.109,1.495-3.46,3.19l-18.036,86.95L63.698,60.407
				c-0.44-1.634-1.851-2.821-3.535-2.975c-1.691-0.124-3.287,0.76-4.015,2.286L37.532,98.785H18.361c-2.231,0-4.04,1.809-4.04,4.04
				s1.809,4.04,4.04,4.04h21.721c1.558,0,2.977-0.896,3.648-2.302l15.006-31.491l20.884,77.636c0.476,1.768,2.079,2.991,3.9,2.991
				c0.04,0,0.081,0,0.12-0.002c1.87-0.053,3.459-1.385,3.837-3.218l19.067-91.929l21.653,44.768
				C128.873,104.713,130.287,105.599,131.836,105.599z"/>
			<path d="M225.268,137.985c-6.771-9.116-17.568-15.008-27.51-15.008c-7.348,0-14.32,2.47-19.981,6.815V21.818
				c0-4.441-3.618-8.055-8.067-8.055H8.067C3.618,13.763,0,17.394,0,21.857v149.467c0,4.463,3.608,8.095,8.043,8.095h121.3
				c15.034,16.029,38.397,33.756,41.97,36.437l2.425,1.821l2.425-1.821c5.027-3.772,49.251-37.332,54.293-54.036
				C232.787,154.091,230.944,145.628,225.268,137.985z M8.081,171.325L8.067,21.843l161.63-0.025v107.975
				c-5.661-4.345-12.633-6.815-19.981-6.815c-9.941,0-20.739,5.891-27.509,15.008c-5.676,7.643-7.518,16.106-5.187,23.834
				c0.838,2.777,2.775,6.024,5.419,9.518L8.081,171.325z M222.718,159.483c-3.419,11.332-34.495,36.964-48.98,48.069
				c-14.485-11.105-45.561-36.737-48.98-48.069c-2.127-7.039,1.553-13.473,3.936-16.68c5.218-7.025,13.666-11.744,21.023-11.744
				c8.32,0,16.041,4.143,20.658,11.084l3.364,5.06l3.364-5.06c4.617-6.941,12.338-11.084,20.658-11.084
				c7.357,0,15.804,4.719,21.023,11.744C221.165,146.011,224.844,152.444,222.718,159.483z"/>
		</g>
	</g>
</g>
<g>
</g>
<g>
</g>
<g>
</g>
<g>
</g>
<g>
</g>
<g>
</g>
<g>
</g>
<g>
</g>
<g>
</g>
<g>
</g>
<g>
</g>
<g>
</g>
<g>
</g>
<g>
</g>
<g>
</g>
</svg>
