<?xml version="1.0" encoding="iso-8859-1"?>
<!-- Generator: Adobe Illustrator 19.0.0, SVG Export Plug-In . SVG Version: 6.00 Build 0)  -->
<svg version="1.1" id="Layer_1" xmlns="http://www.w3.org/2000/svg" xmlns:xlink="http://www.w3.org/1999/xlink" x="0px" y="0px"
	 viewBox="0 0 214.141 214.141" style="enable-background:new 0 0 214.141 214.141;" xml:space="preserve">
<g>
	<g>
		<g>
			<path d="M38.185,0l10.334,214.141h16.128h100.977h0.012l0.162-3.598L175.957,0H38.185z M157.908,206.06H72.416v0.001
				L66.509,56.863h98.11L157.908,206.06z M165.512,48.783H58.101l6.226,157.278h-8.106L46.664,8.081h120.814L165.512,48.783z"/>
			<path d="M88.848,179.002l2.857,2.857c0.013,0.013,0.028,0.024,0.041,0.037l2.816,2.816l0.196-0.196
				c5.807,4.513,12.799,6.796,19.803,6.796c8.278,0,16.554-3.151,22.855-9.452c11.636-11.634,12.504-29.99,2.658-42.659l0.198-0.198
				l-2.857-2.857c-0.006-0.007-0.014-0.012-0.021-0.019l-2.836-2.836l-0.197,0.197c-12.667-9.843-31.022-8.977-42.657,2.657
				c-6.106,6.106-9.468,14.222-9.468,22.855c0,7.272,2.41,14.16,6.81,19.804L88.848,179.002z M131.702,176.148
				c-8.477,8.476-21.723,9.355-31.189,2.618l33.807-33.809C141.052,154.419,140.181,167.669,131.702,176.148z M97.418,141.86
				c4.727-4.725,10.934-7.088,17.142-7.088c4.93,0,9.86,1.491,14.047,4.47l-33.811,33.809c-2.91-4.074-4.478-8.941-4.478-14.049
				C90.317,152.527,92.838,146.439,97.418,141.86z"/>
		</g>
	</g>
</g>
<g>
</g>
<g>
</g>
<g>
</g>
<g>
</g>
<g>
</g>
<g>
</g>
<g>
</g>
<g>
</g>
<g>
</g>
<g>
</g>
<g>
</g>
<g>
</g>
<g>
</g>
<g>
</g>
<g>
</g>
</svg>
