<?xml version="1.0" encoding="iso-8859-1"?>
<!-- Generator: Adobe Illustrator 19.0.0, SVG Export Plug-In . SVG Version: 6.00 Build 0)  -->
<svg version="1.1" id="Layer_1" xmlns="http://www.w3.org/2000/svg" xmlns:xlink="http://www.w3.org/1999/xlink" x="0px" y="0px"
	 viewBox="0 0 226.582 226.582" style="enable-background:new 0 0 226.582 226.582;" xml:space="preserve">
<g>
	<g>
		<g>
			<path d="M225.398,196.878l-88.246-88.248c-1.515-1.515-4.198-1.515-5.714,0l-27.145,27.145c-1.318,1.318-1.564,3.366-0.594,4.958
				c3.162,5.193,7.258,10.273,12.522,15.534c23.862,23.863,67.872,47.761,100.811,47.761c2.006,0,3.973-0.089,5.891-0.27
				c1.558-0.15,2.89-1.184,3.419-2.655C226.874,199.631,226.506,197.985,225.398,196.878z M121.936,150.554
				c-3.886-3.886-7.055-7.631-9.62-11.373l21.979-21.979l78.606,78.611C183.286,193.895,143.695,172.314,121.936,150.554z"/>
			<path d="M28.015,50.918l74.28,74.28l25.712-25.712L59.439,30.919l0.001-0.001L46.583,18.063
				c-3.429-3.431-7.992-5.321-12.849-5.323c-0.004,0-0.006,0-0.008,0c-4.859,0-9.424,1.89-12.855,5.323
				c-3.431,3.429-5.321,7.992-5.321,12.849c-0.002,4.861,1.888,9.428,5.321,12.863L28.015,50.918z M116.579,99.487l-14.284,14.285
				L39.441,50.919l14.285-14.285L116.579,99.487z M26.584,23.776c1.906-1.905,4.441-2.955,7.142-2.955h0.004
				c2.701,0.002,5.236,1.052,7.14,2.955l7.144,7.142L33.728,45.203l-7.144-7.142c-1.906-1.908-2.956-4.445-2.954-7.146
				C23.631,28.215,24.68,25.68,26.584,23.776z"/>
			<path d="M177.778,205.762H4.04c-2.231,0-4.04,1.809-4.04,4.04c0,2.231,1.809,4.04,4.04,4.04h173.737
				c2.231,0,4.04-1.809,4.04-4.04C181.818,207.571,180.009,205.762,177.778,205.762z"/>
		</g>
	</g>
</g>
<g>
</g>
<g>
</g>
<g>
</g>
<g>
</g>
<g>
</g>
<g>
</g>
<g>
</g>
<g>
</g>
<g>
</g>
<g>
</g>
<g>
</g>
<g>
</g>
<g>
</g>
<g>
</g>
<g>
</g>
</svg>
